('/home/wot-param/Documents/Param/paramteraiya/March/Programming with '
 'python/programming-with-python/Ubuntu Desktop app/build/app/PKG-00.pkg',
 {'BINARY': 1,
  'DATA': 1,
  'EXECUTABLE': 1,
  'EXTENSION': 1,
  'PYMODULE': 1,
  'PYSOURCE': 1,
  'PYZ': 0},
 [('PYZ-00.pyz',
   '/home/wot-param/Documents/Param/paramteraiya/March/Programming with '
   'python/programming-with-python/Ubuntu Desktop app/build/app/PYZ-00.pyz',
   'PYZ'),
  ('_struct',
   '/home/wot-param/anaconda3/lib/python3.8/lib-dynload/_struct.cpython-38-x86_64-linux-gnu.so',
   'EXTENSION'),
  ('zlib',
   '/home/wot-param/anaconda3/lib/python3.8/lib-dynload/zlib.cpython-38-x86_64-linux-gnu.so',
   'EXTENSION'),
  ('struct', '/home/wot-param/anaconda3/lib/python3.8/struct.pyo', 'PYMODULE'),
  ('pyimod01_os_path',
   '/home/wot-param/anaconda3/lib/python3.8/site-packages/PyInstaller/loader/pyimod01_os_path.pyc',
   'PYMODULE'),
  ('pyimod02_archive',
   '/home/wot-param/anaconda3/lib/python3.8/site-packages/PyInstaller/loader/pyimod02_archive.pyc',
   'PYMODULE'),
  ('pyimod03_importers',
   '/home/wot-param/anaconda3/lib/python3.8/site-packages/PyInstaller/loader/pyimod03_importers.pyc',
   'PYMODULE'),
  ('pyiboot01_bootstrap',
   '/home/wot-param/anaconda3/lib/python3.8/site-packages/PyInstaller/loader/pyiboot01_bootstrap.py',
   'PYSOURCE'),
  ('pyi_rth_multiprocessing',
   '/home/wot-param/anaconda3/lib/python3.8/site-packages/PyInstaller/hooks/rthooks/pyi_rth_multiprocessing.py',
   'PYSOURCE'),
  ('pyi_rth_pkgres',
   '/home/wot-param/anaconda3/lib/python3.8/site-packages/PyInstaller/hooks/rthooks/pyi_rth_pkgres.py',
   'PYSOURCE'),
  ('pyi_rth__tkinter',
   '/home/wot-param/anaconda3/lib/python3.8/site-packages/PyInstaller/hooks/rthooks/pyi_rth__tkinter.py',
   'PYSOURCE'),
  ('pyi_rth_pyqt5',
   '/home/wot-param/anaconda3/lib/python3.8/site-packages/PyInstaller/hooks/rthooks/pyi_rth_pyqt5.py',
   'PYSOURCE'),
  ('app',
   '/home/wot-param/Documents/Param/paramteraiya/March/Programming with '
   'python/programming-with-python/Ubuntu Desktop app/app.py',
   'PYSOURCE'),
  ('libmkl_avx.so', '/home/wot-param/anaconda3/lib/libmkl_avx.so', 'BINARY'),
  ('libmkl_avx2.so', '/home/wot-param/anaconda3/lib/libmkl_avx2.so', 'BINARY'),
  ('libmkl_vml_mc3.so',
   '/home/wot-param/anaconda3/lib/libmkl_vml_mc3.so',
   'BINARY'),
  ('libmkl_blacs_intelmpi_ilp64.so',
   '/home/wot-param/anaconda3/lib/libmkl_blacs_intelmpi_ilp64.so',
   'BINARY'),
  ('PyQt5/Qt/plugins/platforms/libqminimalegl.so',
   '/home/wot-param/anaconda3/plugins/platforms/libqminimalegl.so',
   'BINARY'),
  ('PyQt5/Qt/plugins/imageformats/libqtiff.so',
   '/home/wot-param/anaconda3/plugins/imageformats/libqtiff.so',
   'BINARY'),
  ('libmkl_intel_lp64.so',
   '/home/wot-param/anaconda3/lib/libmkl_intel_lp64.so',
   'BINARY'),
  ('libmkl_core.so', '/home/wot-param/anaconda3/lib/libmkl_core.so', 'BINARY'),
  ('PyQt5/Qt/plugins/platforminputcontexts/libcomposeplatforminputcontextplugin.so',
   '/home/wot-param/anaconda3/plugins/platforminputcontexts/libcomposeplatforminputcontextplugin.so',
   'BINARY'),
  ('PyQt5/Qt/plugins/imageformats/libqwbmp.so',
   '/home/wot-param/anaconda3/plugins/imageformats/libqwbmp.so',
   'BINARY'),
  ('PyQt5/Qt/plugins/iconengines/libqsvgicon.so',
   '/home/wot-param/anaconda3/plugins/iconengines/libqsvgicon.so',
   'BINARY'),
  ('PyQt5/Qt/plugins/platforminputcontexts/libibusplatforminputcontextplugin.so',
   '/home/wot-param/anaconda3/plugins/platforminputcontexts/libibusplatforminputcontextplugin.so',
   'BINARY'),
  ('PyQt5/Qt/plugins/imageformats/libqgif.so',
   '/home/wot-param/anaconda3/plugins/imageformats/libqgif.so',
   'BINARY'),
  ('libmkl_vml_mc2.so',
   '/home/wot-param/anaconda3/lib/libmkl_vml_mc2.so',
   'BINARY'),
  ('libmkl_cdft_core.so',
   '/home/wot-param/anaconda3/lib/libmkl_cdft_core.so',
   'BINARY'),
  ('libmkl_blacs_openmpi_ilp64.so',
   '/home/wot-param/anaconda3/lib/libmkl_blacs_openmpi_ilp64.so',
   'BINARY'),
  ('libmkl_mc3.so', '/home/wot-param/anaconda3/lib/libmkl_mc3.so', 'BINARY'),
  ('PyQt5/Qt/plugins/platforms/libqminimal.so',
   '/home/wot-param/anaconda3/plugins/platforms/libqminimal.so',
   'BINARY'),
  ('libmkl_def.so', '/home/wot-param/anaconda3/lib/libmkl_def.so', 'BINARY'),
  ('PyQt5/Qt/plugins/imageformats/libqico.so',
   '/home/wot-param/anaconda3/plugins/imageformats/libqico.so',
   'BINARY'),
  ('libmkl_gnu_thread.so',
   '/home/wot-param/anaconda3/lib/libmkl_gnu_thread.so',
   'BINARY'),
  ('libmkl_mc.so', '/home/wot-param/anaconda3/lib/libmkl_mc.so', 'BINARY'),
  ('libmkl_tbb_thread.so',
   '/home/wot-param/anaconda3/lib/libmkl_tbb_thread.so',
   'BINARY'),
  ('libmkl_rt.so', '/home/wot-param/anaconda3/lib/libmkl_rt.so', 'BINARY'),
  ('libmkl_pgi_thread.so',
   '/home/wot-param/anaconda3/lib/libmkl_pgi_thread.so',
   'BINARY'),
  ('PyQt5/Qt/plugins/xcbglintegrations/libqxcb-glx-integration.so',
   '/home/wot-param/anaconda3/plugins/xcbglintegrations/libqxcb-glx-integration.so',
   'BINARY'),
  ('PyQt5/Qt/plugins/platforms/libqvnc.so',
   '/home/wot-param/anaconda3/plugins/platforms/libqvnc.so',
   'BINARY'),
  ('PyQt5/Qt/plugins/imageformats/libqjpeg.so',
   '/home/wot-param/anaconda3/plugins/imageformats/libqjpeg.so',
   'BINARY'),
  ('libmkl_scalapack_ilp64.so',
   '/home/wot-param/anaconda3/lib/libmkl_scalapack_ilp64.so',
   'BINARY'),
  ('libmkl_vml_avx2.so',
   '/home/wot-param/anaconda3/lib/libmkl_vml_avx2.so',
   'BINARY'),
  ('libmkl_vml_cmpt.so',
   '/home/wot-param/anaconda3/lib/libmkl_vml_cmpt.so',
   'BINARY'),
  ('libmkl_vml_avx512.so',
   '/home/wot-param/anaconda3/lib/libmkl_vml_avx512.so',
   'BINARY'),
  ('libmkl_vml_avx.so',
   '/home/wot-param/anaconda3/lib/libmkl_vml_avx.so',
   'BINARY'),
  ('libmkl_blacs_sgimpt_ilp64.so',
   '/home/wot-param/anaconda3/lib/libmkl_blacs_sgimpt_ilp64.so',
   'BINARY'),
  ('PyQt5/Qt/plugins/egldeviceintegrations/libqeglfs-x11-integration.so',
   '/home/wot-param/anaconda3/plugins/egldeviceintegrations/libqeglfs-x11-integration.so',
   'BINARY'),
  ('libmkl_sequential.so',
   '/home/wot-param/anaconda3/lib/libmkl_sequential.so',
   'BINARY'),
  ('libmkl_blacs_sgimpt_lp64.so',
   '/home/wot-param/anaconda3/lib/libmkl_blacs_sgimpt_lp64.so',
   'BINARY'),
  ('libmkl_blacs_openmpi_lp64.so',
   '/home/wot-param/anaconda3/lib/libmkl_blacs_openmpi_lp64.so',
   'BINARY'),
  ('PyQt5/Qt/plugins/xcbglintegrations/libqxcb-egl-integration.so',
   '/home/wot-param/anaconda3/plugins/xcbglintegrations/libqxcb-egl-integration.so',
   'BINARY'),
  ('libmkl_gf_ilp64.so',
   '/home/wot-param/anaconda3/lib/libmkl_gf_ilp64.so',
   'BINARY'),
  ('PyQt5/Qt/plugins/imageformats/libqtga.so',
   '/home/wot-param/anaconda3/plugins/imageformats/libqtga.so',
   'BINARY'),
  ('libmkl_avx512.so',
   '/home/wot-param/anaconda3/lib/libmkl_avx512.so',
   'BINARY'),
  ('libmkl_intel_thread.so',
   '/home/wot-param/anaconda3/lib/libmkl_intel_thread.so',
   'BINARY'),
  ('PyQt5/Qt/plugins/imageformats/libqwebp.so',
   '/home/wot-param/anaconda3/plugins/imageformats/libqwebp.so',
   'BINARY'),
  ('libmkl_avx512_mic.so',
   '/home/wot-param/anaconda3/lib/libmkl_avx512_mic.so',
   'BINARY'),
  ('PyQt5/Qt/plugins/platforminputcontexts/libqtvirtualkeyboardplugin.so',
   '/home/wot-param/anaconda3/plugins/platforminputcontexts/libqtvirtualkeyboardplugin.so',
   'BINARY'),
  ('libmkl_vml_mc.so',
   '/home/wot-param/anaconda3/lib/libmkl_vml_mc.so',
   'BINARY'),
  ('libmkl_vml_avx512_mic.so',
   '/home/wot-param/anaconda3/lib/libmkl_vml_avx512_mic.so',
   'BINARY'),
  ('PyQt5/Qt/plugins/platforms/libqoffscreen.so',
   '/home/wot-param/anaconda3/plugins/platforms/libqoffscreen.so',
   'BINARY'),
  ('PyQt5/Qt/plugins/platforms/libqxcb.so',
   '/home/wot-param/anaconda3/plugins/platforms/libqxcb.so',
   'BINARY'),
  ('PyQt5/Qt/plugins/platforms/libqeglfs.so',
   '/home/wot-param/anaconda3/plugins/platforms/libqeglfs.so',
   'BINARY'),
  ('libmkl_scalapack_lp64.so',
   '/home/wot-param/anaconda3/lib/libmkl_scalapack_lp64.so',
   'BINARY'),
  ('PyQt5/Qt/plugins/egldeviceintegrations/libqeglfs-emu-integration.so',
   '/home/wot-param/anaconda3/plugins/egldeviceintegrations/libqeglfs-emu-integration.so',
   'BINARY'),
  ('PyQt5/Qt/plugins/imageformats/libqsvg.so',
   '/home/wot-param/anaconda3/plugins/imageformats/libqsvg.so',
   'BINARY'),
  ('libmkl_intel_ilp64.so',
   '/home/wot-param/anaconda3/lib/libmkl_intel_ilp64.so',
   'BINARY'),
  ('libmkl_blacs_intelmpi_lp64.so',
   '/home/wot-param/anaconda3/lib/libmkl_blacs_intelmpi_lp64.so',
   'BINARY'),
  ('PyQt5/Qt/plugins/imageformats/libqicns.so',
   '/home/wot-param/anaconda3/plugins/imageformats/libqicns.so',
   'BINARY'),
  ('libmkl_vml_def.so',
   '/home/wot-param/anaconda3/lib/libmkl_vml_def.so',
   'BINARY'),
  ('libmkl_gf_lp64.so',
   '/home/wot-param/anaconda3/lib/libmkl_gf_lp64.so',
   'BINARY'),
  ('select',
   '/home/wot-param/anaconda3/lib/python3.8/lib-dynload/select.cpython-38-x86_64-linux-gnu.so',
   'EXTENSION'),
  ('math',
   '/home/wot-param/anaconda3/lib/python3.8/lib-dynload/math.cpython-38-x86_64-linux-gnu.so',
   'EXTENSION'),
  ('binascii',
   '/home/wot-param/anaconda3/lib/python3.8/lib-dynload/binascii.cpython-38-x86_64-linux-gnu.so',
   'EXTENSION'),
  ('_ssl',
   '/home/wot-param/anaconda3/lib/python3.8/lib-dynload/_ssl.cpython-38-x86_64-linux-gnu.so',
   'EXTENSION'),
  ('_asyncio',
   '/home/wot-param/anaconda3/lib/python3.8/lib-dynload/_asyncio.cpython-38-x86_64-linux-gnu.so',
   'EXTENSION'),
  ('_contextvars',
   '/home/wot-param/anaconda3/lib/python3.8/lib-dynload/_contextvars.cpython-38-x86_64-linux-gnu.so',
   'EXTENSION'),
  ('_queue',
   '/home/wot-param/anaconda3/lib/python3.8/lib-dynload/_queue.cpython-38-x86_64-linux-gnu.so',
   'EXTENSION'),
  ('mmap',
   '/home/wot-param/anaconda3/lib/python3.8/lib-dynload/mmap.cpython-38-x86_64-linux-gnu.so',
   'EXTENSION'),
  ('_bisect',
   '/home/wot-param/anaconda3/lib/python3.8/lib-dynload/_bisect.cpython-38-x86_64-linux-gnu.so',
   'EXTENSION'),
  ('_posixshmem',
   '/home/wot-param/anaconda3/lib/python3.8/lib-dynload/_posixshmem.cpython-38-x86_64-linux-gnu.so',
   'EXTENSION'),
  ('grp',
   '/home/wot-param/anaconda3/lib/python3.8/lib-dynload/grp.cpython-38-x86_64-linux-gnu.so',
   'EXTENSION'),
  ('unicodedata',
   '/home/wot-param/anaconda3/lib/python3.8/lib-dynload/unicodedata.cpython-38-x86_64-linux-gnu.so',
   'EXTENSION'),
  ('_csv',
   '/home/wot-param/anaconda3/lib/python3.8/lib-dynload/_csv.cpython-38-x86_64-linux-gnu.so',
   'EXTENSION'),
  ('_posixsubprocess',
   '/home/wot-param/anaconda3/lib/python3.8/lib-dynload/_posixsubprocess.cpython-38-x86_64-linux-gnu.so',
   'EXTENSION'),
  ('array',
   '/home/wot-param/anaconda3/lib/python3.8/lib-dynload/array.cpython-38-x86_64-linux-gnu.so',
   'EXTENSION'),
  ('_multiprocessing',
   '/home/wot-param/anaconda3/lib/python3.8/lib-dynload/_multiprocessing.cpython-38-x86_64-linux-gnu.so',
   'EXTENSION'),
  ('pyexpat',
   '/home/wot-param/anaconda3/lib/python3.8/lib-dynload/pyexpat.cpython-38-x86_64-linux-gnu.so',
   'EXTENSION'),
  ('termios',
   '/home/wot-param/anaconda3/lib/python3.8/lib-dynload/termios.cpython-38-x86_64-linux-gnu.so',
   'EXTENSION'),
  ('_decimal',
   '/home/wot-param/anaconda3/lib/python3.8/lib-dynload/_decimal.cpython-38-x86_64-linux-gnu.so',
   'EXTENSION'),
  ('_pickle',
   '/home/wot-param/anaconda3/lib/python3.8/lib-dynload/_pickle.cpython-38-x86_64-linux-gnu.so',
   'EXTENSION'),
  ('_hashlib',
   '/home/wot-param/anaconda3/lib/python3.8/lib-dynload/_hashlib.cpython-38-x86_64-linux-gnu.so',
   'EXTENSION'),
  ('_sha3',
   '/home/wot-param/anaconda3/lib/python3.8/lib-dynload/_sha3.cpython-38-x86_64-linux-gnu.so',
   'EXTENSION'),
  ('_blake2',
   '/home/wot-param/anaconda3/lib/python3.8/lib-dynload/_blake2.cpython-38-x86_64-linux-gnu.so',
   'EXTENSION'),
  ('_sha512',
   '/home/wot-param/anaconda3/lib/python3.8/lib-dynload/_sha512.cpython-38-x86_64-linux-gnu.so',
   'EXTENSION'),
  ('_sha256',
   '/home/wot-param/anaconda3/lib/python3.8/lib-dynload/_sha256.cpython-38-x86_64-linux-gnu.so',
   'EXTENSION'),
  ('_md5',
   '/home/wot-param/anaconda3/lib/python3.8/lib-dynload/_md5.cpython-38-x86_64-linux-gnu.so',
   'EXTENSION'),
  ('_sha1',
   '/home/wot-param/anaconda3/lib/python3.8/lib-dynload/_sha1.cpython-38-x86_64-linux-gnu.so',
   'EXTENSION'),
  ('_ctypes',
   '/home/wot-param/anaconda3/lib/python3.8/lib-dynload/_ctypes.cpython-38-x86_64-linux-gnu.so',
   'EXTENSION'),
  ('_socket',
   '/home/wot-param/anaconda3/lib/python3.8/lib-dynload/_socket.cpython-38-x86_64-linux-gnu.so',
   'EXTENSION'),
  ('resource',
   '/home/wot-param/anaconda3/lib/python3.8/lib-dynload/resource.cpython-38-x86_64-linux-gnu.so',
   'EXTENSION'),
  ('_lzma',
   '/home/wot-param/anaconda3/lib/python3.8/lib-dynload/_lzma.cpython-38-x86_64-linux-gnu.so',
   'EXTENSION'),
  ('_bz2',
   '/home/wot-param/anaconda3/lib/python3.8/lib-dynload/_bz2.cpython-38-x86_64-linux-gnu.so',
   'EXTENSION'),
  ('readline',
   '/home/wot-param/anaconda3/lib/python3.8/lib-dynload/readline.cpython-38-x86_64-linux-gnu.so',
   'EXTENSION'),
  ('_opcode',
   '/home/wot-param/anaconda3/lib/python3.8/lib-dynload/_opcode.cpython-38-x86_64-linux-gnu.so',
   'EXTENSION'),
  ('_datetime',
   '/home/wot-param/anaconda3/lib/python3.8/lib-dynload/_datetime.cpython-38-x86_64-linux-gnu.so',
   'EXTENSION'),
  ('_multibytecodec',
   '/home/wot-param/anaconda3/lib/python3.8/lib-dynload/_multibytecodec.cpython-38-x86_64-linux-gnu.so',
   'EXTENSION'),
  ('_codecs_jp',
   '/home/wot-param/anaconda3/lib/python3.8/lib-dynload/_codecs_jp.cpython-38-x86_64-linux-gnu.so',
   'EXTENSION'),
  ('_codecs_iso2022',
   '/home/wot-param/anaconda3/lib/python3.8/lib-dynload/_codecs_iso2022.cpython-38-x86_64-linux-gnu.so',
   'EXTENSION'),
  ('_codecs_cn',
   '/home/wot-param/anaconda3/lib/python3.8/lib-dynload/_codecs_cn.cpython-38-x86_64-linux-gnu.so',
   'EXTENSION'),
  ('_codecs_kr',
   '/home/wot-param/anaconda3/lib/python3.8/lib-dynload/_codecs_kr.cpython-38-x86_64-linux-gnu.so',
   'EXTENSION'),
  ('_codecs_tw',
   '/home/wot-param/anaconda3/lib/python3.8/lib-dynload/_codecs_tw.cpython-38-x86_64-linux-gnu.so',
   'EXTENSION'),
  ('_codecs_hk',
   '/home/wot-param/anaconda3/lib/python3.8/lib-dynload/_codecs_hk.cpython-38-x86_64-linux-gnu.so',
   'EXTENSION'),
  ('_heapq',
   '/home/wot-param/anaconda3/lib/python3.8/lib-dynload/_heapq.cpython-38-x86_64-linux-gnu.so',
   'EXTENSION'),
  ('_random',
   '/home/wot-param/anaconda3/lib/python3.8/lib-dynload/_random.cpython-38-x86_64-linux-gnu.so',
   'EXTENSION'),
  ('mkl._py_mkl_service',
   '/home/wot-param/anaconda3/lib/python3.8/site-packages/mkl/_py_mkl_service.cpython-38-x86_64-linux-gnu.so',
   'EXTENSION'),
  ('mkl._mklinit',
   '/home/wot-param/anaconda3/lib/python3.8/site-packages/mkl/_mklinit.cpython-38-x86_64-linux-gnu.so',
   'EXTENSION'),
  ('syslog',
   '/home/wot-param/anaconda3/lib/python3.8/lib-dynload/syslog.cpython-38-x86_64-linux-gnu.so',
   'EXTENSION'),
  ('_json',
   '/home/wot-param/anaconda3/lib/python3.8/lib-dynload/_json.cpython-38-x86_64-linux-gnu.so',
   'EXTENSION'),
  ('_curses',
   '/home/wot-param/anaconda3/lib/python3.8/lib-dynload/_curses.cpython-38-x86_64-linux-gnu.so',
   'EXTENSION'),
  ('scipy._lib._fpumode',
   '/home/wot-param/anaconda3/lib/python3.8/site-packages/scipy/_lib/_fpumode.cpython-38-x86_64-linux-gnu.so',
   'EXTENSION'),
  ('scipy._lib._ccallback_c',
   '/home/wot-param/anaconda3/lib/python3.8/site-packages/scipy/_lib/_ccallback_c.cpython-38-x86_64-linux-gnu.so',
   'EXTENSION'),
  ('scipy._lib.messagestream',
   '/home/wot-param/anaconda3/lib/python3.8/site-packages/scipy/_lib/messagestream.cpython-38-x86_64-linux-gnu.so',
   'EXTENSION'),
  ('scipy.fft._pocketfft.pypocketfft',
   '/home/wot-param/anaconda3/lib/python3.8/site-packages/scipy/fft/_pocketfft/pypocketfft.cpython-38-x86_64-linux-gnu.so',
   'EXTENSION'),
  ('scipy._lib._uarray._uarray',
   '/home/wot-param/anaconda3/lib/python3.8/site-packages/scipy/_lib/_uarray/_uarray.cpython-38-x86_64-linux-gnu.so',
   'EXTENSION'),
  ('_elementtree',
   '/home/wot-param/anaconda3/lib/python3.8/lib-dynload/_elementtree.cpython-38-x86_64-linux-gnu.so',
   'EXTENSION'),
  ('psutil._psutil_posix',
   '/home/wot-param/anaconda3/lib/python3.8/site-packages/psutil/_psutil_posix.cpython-38-x86_64-linux-gnu.so',
   'EXTENSION'),
  ('psutil._psutil_linux',
   '/home/wot-param/anaconda3/lib/python3.8/site-packages/psutil/_psutil_linux.cpython-38-x86_64-linux-gnu.so',
   'EXTENSION'),
  ('fcntl',
   '/home/wot-param/anaconda3/lib/python3.8/lib-dynload/fcntl.cpython-38-x86_64-linux-gnu.so',
   'EXTENSION'),
  ('zope.interface._zope_interface_coptimizations',
   '/home/wot-param/anaconda3/lib/python3.8/site-packages/zope/interface/_zope_interface_coptimizations.cpython-38-x86_64-linux-gnu.so',
   'EXTENSION'),
  ('PIL._imagingft',
   '/home/wot-param/anaconda3/lib/python3.8/site-packages/PIL/_imagingft.cpython-38-x86_64-linux-gnu.so',
   'EXTENSION'),
  ('PIL._imagingtk',
   '/home/wot-param/anaconda3/lib/python3.8/site-packages/PIL/_imagingtk.cpython-38-x86_64-linux-gnu.so',
   'EXTENSION'),
  ('_tkinter',
   '/home/wot-param/anaconda3/lib/python3.8/lib-dynload/_tkinter.cpython-38-x86_64-linux-gnu.so',
   'EXTENSION'),
  ('_cffi_backend',
   '/home/wot-param/anaconda3/lib/python3.8/site-packages/_cffi_backend.cpython-38-x86_64-linux-gnu.so',
   'EXTENSION'),
  ('PIL._imaging',
   '/home/wot-param/anaconda3/lib/python3.8/site-packages/PIL/_imaging.cpython-38-x86_64-linux-gnu.so',
   'EXTENSION'),
  ('parser',
   '/home/wot-param/anaconda3/lib/python3.8/lib-dynload/parser.cpython-38-x86_64-linux-gnu.so',
   'EXTENSION'),
  ('numpy.core._multiarray_umath',
   '/home/wot-param/anaconda3/lib/python3.8/site-packages/numpy/core/_multiarray_umath.cpython-38-x86_64-linux-gnu.so',
   'EXTENSION'),
  ('numpy.core._multiarray_tests',
   '/home/wot-param/anaconda3/lib/python3.8/site-packages/numpy/core/_multiarray_tests.cpython-38-x86_64-linux-gnu.so',
   'EXTENSION'),
  ('numpy.linalg.lapack_lite',
   '/home/wot-param/anaconda3/lib/python3.8/site-packages/numpy/linalg/lapack_lite.cpython-38-x86_64-linux-gnu.so',
   'EXTENSION'),
  ('numpy.random.mtrand',
   '/home/wot-param/anaconda3/lib/python3.8/site-packages/numpy/random/mtrand.cpython-38-x86_64-linux-gnu.so',
   'EXTENSION'),
  ('numpy.random._sfc64',
   '/home/wot-param/anaconda3/lib/python3.8/site-packages/numpy/random/_sfc64.cpython-38-x86_64-linux-gnu.so',
   'EXTENSION'),
  ('numpy.random._philox',
   '/home/wot-param/anaconda3/lib/python3.8/site-packages/numpy/random/_philox.cpython-38-x86_64-linux-gnu.so',
   'EXTENSION'),
  ('numpy.random._pcg64',
   '/home/wot-param/anaconda3/lib/python3.8/site-packages/numpy/random/_pcg64.cpython-38-x86_64-linux-gnu.so',
   'EXTENSION'),
  ('numpy.random._mt19937',
   '/home/wot-param/anaconda3/lib/python3.8/site-packages/numpy/random/_mt19937.cpython-38-x86_64-linux-gnu.so',
   'EXTENSION'),
  ('numpy.random.bit_generator',
   '/home/wot-param/anaconda3/lib/python3.8/site-packages/numpy/random/bit_generator.cpython-38-x86_64-linux-gnu.so',
   'EXTENSION'),
  ('numpy.random._generator',
   '/home/wot-param/anaconda3/lib/python3.8/site-packages/numpy/random/_generator.cpython-38-x86_64-linux-gnu.so',
   'EXTENSION'),
  ('numpy.random._bounded_integers',
   '/home/wot-param/anaconda3/lib/python3.8/site-packages/numpy/random/_bounded_integers.cpython-38-x86_64-linux-gnu.so',
   'EXTENSION'),
  ('numpy.random._common',
   '/home/wot-param/anaconda3/lib/python3.8/site-packages/numpy/random/_common.cpython-38-x86_64-linux-gnu.so',
   'EXTENSION'),
  ('numpy.fft._pocketfft_internal',
   '/home/wot-param/anaconda3/lib/python3.8/site-packages/numpy/fft/_pocketfft_internal.cpython-38-x86_64-linux-gnu.so',
   'EXTENSION'),
  ('numpy.linalg._umath_linalg',
   '/home/wot-param/anaconda3/lib/python3.8/site-packages/numpy/linalg/_umath_linalg.cpython-38-x86_64-linux-gnu.so',
   'EXTENSION'),
  ('cv2.cv2',
   '/home/wot-param/anaconda3/lib/python3.8/site-packages/cv2/cv2.cpython-38-x86_64-linux-gnu.so',
   'EXTENSION'),
  ('PyQt5.sip',
   '/home/wot-param/anaconda3/lib/python3.8/site-packages/PyQt5/sip.cpython-38-x86_64-linux-gnu.so',
   'EXTENSION'),
  ('sip',
   '/home/wot-param/anaconda3/lib/python3.8/site-packages/sip.so',
   'EXTENSION'),
  ('PyQt5.QtWidgets',
   '/home/wot-param/anaconda3/lib/python3.8/site-packages/PyQt5/QtWidgets.so',
   'EXTENSION'),
  ('PyQt5.QtMultimediaWidgets',
   '/home/wot-param/anaconda3/lib/python3.8/site-packages/PyQt5/QtMultimediaWidgets.so',
   'EXTENSION'),
  ('PyQt5.QtCore',
   '/home/wot-param/anaconda3/lib/python3.8/site-packages/PyQt5/QtCore.so',
   'EXTENSION'),
  ('PyQt5.QtGui',
   '/home/wot-param/anaconda3/lib/python3.8/site-packages/PyQt5/QtGui.so',
   'EXTENSION'),
  ('libicui18n.so.58',
   '/home/wot-param/anaconda3/plugins/platforms/../../lib/./libicui18n.so.58',
   'BINARY'),
  ('libpcre.so.1',
   '/home/wot-param/anaconda3/plugins/platforms/../../lib/./libpcre.so.1',
   'BINARY'),
  ('libX11.so.6', '/usr/lib/x86_64-linux-gnu/libX11.so.6', 'BINARY'),
  ('libicudata.so.58',
   '/home/wot-param/anaconda3/plugins/platforms/../../lib/./libicudata.so.58',
   'BINARY'),
  ('libgthread-2.0.so.0',
   '/home/wot-param/anaconda3/plugins/platforms/../../lib/libgthread-2.0.so.0',
   'BINARY'),
  ('libicuuc.so.58',
   '/home/wot-param/anaconda3/plugins/platforms/../../lib/./libicuuc.so.58',
   'BINARY'),
  ('libXext.so.6', '/usr/lib/x86_64-linux-gnu/libXext.so.6', 'BINARY'),
  ('libz.so.1',
   '/home/wot-param/anaconda3/plugins/platforms/../../lib/./libz.so.1',
   'BINARY'),
  ('libQt5Gui.so.5',
   '/home/wot-param/anaconda3/plugins/platforms/../../lib/libQt5Gui.so.5',
   'BINARY'),
  ('libXau.so.6', '/usr/lib/x86_64-linux-gnu/libXau.so.6', 'BINARY'),
  ('libpng16.so.16',
   '/home/wot-param/anaconda3/plugins/platforms/../../lib/./libpng16.so.16',
   'BINARY'),
  ('libstdc++.so.6',
   '/home/wot-param/anaconda3/plugins/platforms/../../lib/libstdc++.so.6',
   'BINARY'),
  ('libfreetype.so.6',
   '/home/wot-param/anaconda3/plugins/platforms/../../lib/libfreetype.so.6',
   'BINARY'),
  ('libglib-2.0.so.0',
   '/home/wot-param/anaconda3/plugins/platforms/../../lib/libglib-2.0.so.0',
   'BINARY'),
  ('liblzma.so.5',
   '/home/wot-param/anaconda3/plugins/platforms/../../lib/././liblzma.so.5',
   'BINARY'),
  ('libgcc_s.so.1',
   '/home/wot-param/anaconda3/plugins/platforms/../../lib/libgcc_s.so.1',
   'BINARY'),
  ('libxml2.so.2',
   '/home/wot-param/anaconda3/plugins/platforms/../../lib/./libxml2.so.2',
   'BINARY'),
  ('libfontconfig.so.1',
   '/home/wot-param/anaconda3/plugins/platforms/../../lib/libfontconfig.so.1',
   'BINARY'),
  ('libuuid.so.1',
   '/home/wot-param/anaconda3/plugins/platforms/../../lib/./libuuid.so.1',
   'BINARY'),
  ('libQt5Core.so.5',
   '/home/wot-param/anaconda3/plugins/platforms/../../lib/libQt5Core.so.5',
   'BINARY'),
  ('libQt5Svg.so.5',
   '/home/wot-param/anaconda3/plugins/iconengines/../../lib/libQt5Svg.so.5',
   'BINARY'),
  ('libQt5Widgets.so.5',
   '/home/wot-param/anaconda3/plugins/iconengines/../../lib/libQt5Widgets.so.5',
   'BINARY'),
  ('libQt5DBus.so.5',
   '/home/wot-param/anaconda3/plugins/platforminputcontexts/../../lib/libQt5DBus.so.5',
   'BINARY'),
  ('libdbus-1.so.3',
   '/home/wot-param/anaconda3/plugins/platforminputcontexts/../../lib/./libdbus-1.so.3',
   'BINARY'),
  ('libX11-xcb.so.1', '/usr/lib/x86_64-linux-gnu/libX11-xcb.so.1', 'BINARY'),
  ('libXi.so.6', '/usr/lib/x86_64-linux-gnu/libXi.so.6', 'BINARY'),
  ('libQt5XcbQpa.so.5',
   '/home/wot-param/anaconda3/plugins/xcbglintegrations/../../lib/libQt5XcbQpa.so.5',
   'BINARY'),
  ('libxcb-glx.so.0',
   '/home/wot-param/anaconda3/plugins/xcbglintegrations/../../lib/libxcb-glx.so.0',
   'BINARY'),
  ('libQt5Network.so.5',
   '/home/wot-param/anaconda3/plugins/platforms/../../lib/libQt5Network.so.5',
   'BINARY'),
  ('libjpeg.so.9',
   '/home/wot-param/anaconda3/plugins/imageformats/../../lib/libjpeg.so.9',
   'BINARY'),
  ('libQt5EglFSDeviceIntegration.so.5',
   '/home/wot-param/anaconda3/plugins/egldeviceintegrations/../../lib/libQt5EglFSDeviceIntegration.so.5',
   'BINARY'),
  ('libQt5Qml.so.5',
   '/home/wot-param/anaconda3/plugins/platforminputcontexts/../../lib/libQt5Qml.so.5',
   'BINARY'),
  ('libQt5Quick.so.5',
   '/home/wot-param/anaconda3/plugins/platforminputcontexts/../../lib/libQt5Quick.so.5',
   'BINARY'),
  ('libxcb-xfixes.so.0',
   '/home/wot-param/anaconda3/plugins/platforminputcontexts/../../lib/libxcb-xfixes.so.0',
   'BINARY'),
  ('libssl.so.1.1',
   '/home/wot-param/anaconda3/lib/python3.8/lib-dynload/../../libssl.so.1.1',
   'BINARY'),
  ('libcrypto.so.1.1',
   '/home/wot-param/anaconda3/lib/python3.8/lib-dynload/../../libcrypto.so.1.1',
   'BINARY'),
  ('libffi.so.7',
   '/home/wot-param/anaconda3/lib/python3.8/lib-dynload/../../libffi.so.7',
   'BINARY'),
  ('libreadline.so.8',
   '/home/wot-param/anaconda3/lib/python3.8/lib-dynload/../../libreadline.so.8',
   'BINARY'),
  ('libtinfow.so.6',
   '/home/wot-param/anaconda3/lib/python3.8/lib-dynload/../.././libtinfow.so.6',
   'BINARY'),
  ('libncursesw.so.6',
   '/home/wot-param/anaconda3/lib/python3.8/lib-dynload/../../libncursesw.so.6',
   'BINARY'),
  ('libtcl8.6.so',
   '/home/wot-param/anaconda3/lib/python3.8/lib-dynload/../../libtcl8.6.so',
   'BINARY'),
  ('libtk8.6.so',
   '/home/wot-param/anaconda3/lib/python3.8/lib-dynload/../../libtk8.6.so',
   'BINARY'),
  ('libzstd.so.1',
   '/home/wot-param/anaconda3/lib/python3.8/site-packages/PIL/../../.././libzstd.so.1',
   'BINARY'),
  ('libtiff.so.5',
   '/home/wot-param/anaconda3/lib/python3.8/site-packages/PIL/../../../libtiff.so.5',
   'BINARY'),
  ('libavformat-06a336f2.so.58.61.100',
   '/home/wot-param/anaconda3/lib/python3.8/site-packages/cv2/../opencv_contrib_python_headless.libs/libavformat-06a336f2.so.58.61.100',
   'BINARY'),
  ('libvpx-14094576.so.6.3.0',
   '/home/wot-param/anaconda3/lib/python3.8/site-packages/cv2/../opencv_contrib_python_headless.libs/libvpx-14094576.so.6.3.0',
   'BINARY'),
  ('libbz2-a273e504.so.1.0.6',
   '/home/wot-param/anaconda3/lib/python3.8/site-packages/cv2/../opencv_contrib_python_headless.libs/libbz2-a273e504.so.1.0.6',
   'BINARY'),
  ('libswresample-4767dc06.so.3.8.100',
   '/home/wot-param/anaconda3/lib/python3.8/site-packages/cv2/../opencv_contrib_python_headless.libs/libswresample-4767dc06.so.3.8.100',
   'BINARY'),
  ('libcrypto-098682aa.so.1.1',
   '/home/wot-param/anaconda3/lib/python3.8/site-packages/cv2/../opencv_contrib_python_headless.libs/libcrypto-098682aa.so.1.1',
   'BINARY'),
  ('libz-d8a329de.so.1.2.7',
   '/home/wot-param/anaconda3/lib/python3.8/site-packages/cv2/../opencv_contrib_python_headless.libs/libz-d8a329de.so.1.2.7',
   'BINARY'),
  ('libavutil-01d48d95.so.56.60.100',
   '/home/wot-param/anaconda3/lib/python3.8/site-packages/cv2/../opencv_contrib_python_headless.libs/libavutil-01d48d95.so.56.60.100',
   'BINARY'),
  ('libpng15-c2ffaf3d.so.15.13.0',
   '/home/wot-param/anaconda3/lib/python3.8/site-packages/cv2/../opencv_contrib_python_headless.libs/libpng15-c2ffaf3d.so.15.13.0',
   'BINARY'),
  ('libssl-f3db6a3b.so.1.1',
   '/home/wot-param/anaconda3/lib/python3.8/site-packages/cv2/../opencv_contrib_python_headless.libs/libssl-f3db6a3b.so.1.1',
   'BINARY'),
  ('libswscale-2d2bce5d.so.5.8.100',
   '/home/wot-param/anaconda3/lib/python3.8/site-packages/cv2/../opencv_contrib_python_headless.libs/libswscale-2d2bce5d.so.5.8.100',
   'BINARY'),
  ('libavcodec-8daa01ff.so.58.109.100',
   '/home/wot-param/anaconda3/lib/python3.8/site-packages/cv2/../opencv_contrib_python_headless.libs/libavcodec-8daa01ff.so.58.109.100',
   'BINARY'),
  ('libQt5MultimediaWidgets.so.5',
   '/home/wot-param/anaconda3/lib/python3.8/site-packages/PyQt5/../../../libQt5MultimediaWidgets.so.5',
   'BINARY'),
  ('libQt5OpenGL.so.5',
   '/home/wot-param/anaconda3/lib/python3.8/site-packages/PyQt5/../../.././libQt5OpenGL.so.5',
   'BINARY'),
  ('libQt5Multimedia.so.5',
   '/home/wot-param/anaconda3/lib/python3.8/site-packages/PyQt5/../../../libQt5Multimedia.so.5',
   'BINARY'),
  ('libXdmcp.so.6', '/usr/lib/x86_64-linux-gnu/libXdmcp.so.6', 'BINARY'),
  ('libbsd.so.0', '/lib/x86_64-linux-gnu/libbsd.so.0', 'BINARY'),
  ('libpython3.8.so.1.0',
   '/home/wot-param/anaconda3/lib/libpython3.8.so.1.0',
   'BINARY'),
  ('base_library.zip',
   '/home/wot-param/Documents/Param/paramteraiya/March/Programming with '
   'python/programming-with-python/Ubuntu Desktop '
   'app/build/app/base_library.zip',
   'DATA'),
  ('tcl/word.tcl', '/home/wot-param/anaconda3/lib/tcl8.6/word.tcl', 'DATA'),
  ('tk/clrpick.tcl', '/home/wot-param/anaconda3/lib/tk8.6/clrpick.tcl', 'DATA'),
  ('tk/images/pwrdLogo100.gif',
   '/home/wot-param/anaconda3/lib/tk8.6/images/pwrdLogo100.gif',
   'DATA'),
  ('tcl/msgs/es_ar.msg',
   '/home/wot-param/anaconda3/lib/tcl8.6/msgs/es_ar.msg',
   'DATA'),
  ('tcl/msgs/bn.msg',
   '/home/wot-param/anaconda3/lib/tcl8.6/msgs/bn.msg',
   'DATA'),
  ('tcl/msgs/en_sg.msg',
   '/home/wot-param/anaconda3/lib/tcl8.6/msgs/en_sg.msg',
   'DATA'),
  ('tcl/encoding/cp737.enc',
   '/home/wot-param/anaconda3/lib/tcl8.6/encoding/cp737.enc',
   'DATA'),
  ('tcl/msgs/fa_ir.msg',
   '/home/wot-param/anaconda3/lib/tcl8.6/msgs/fa_ir.msg',
   'DATA'),
  ('tk/ttk/scale.tcl',
   '/home/wot-param/anaconda3/lib/tk8.6/ttk/scale.tcl',
   'DATA'),
  ('tcl/msgs/sq.msg',
   '/home/wot-param/anaconda3/lib/tcl8.6/msgs/sq.msg',
   'DATA'),
  ('tk/images/logo64.gif',
   '/home/wot-param/anaconda3/lib/tk8.6/images/logo64.gif',
   'DATA'),
  ('tcl/encoding/big5.enc',
   '/home/wot-param/anaconda3/lib/tcl8.6/encoding/big5.enc',
   'DATA'),
  ('tcl/msgs/be.msg',
   '/home/wot-param/anaconda3/lib/tcl8.6/msgs/be.msg',
   'DATA'),
  ('tk/images/logo100.gif',
   '/home/wot-param/anaconda3/lib/tk8.6/images/logo100.gif',
   'DATA'),
  ('tcl/encoding/iso8859-9.enc',
   '/home/wot-param/anaconda3/lib/tcl8.6/encoding/iso8859-9.enc',
   'DATA'),
  ('tcl/msgs/ta_in.msg',
   '/home/wot-param/anaconda3/lib/tcl8.6/msgs/ta_in.msg',
   'DATA'),
  ('tcl/msgs/es_pa.msg',
   '/home/wot-param/anaconda3/lib/tcl8.6/msgs/es_pa.msg',
   'DATA'),
  ('tk/safetk.tcl', '/home/wot-param/anaconda3/lib/tk8.6/safetk.tcl', 'DATA'),
  ('tcl/msgs/is.msg',
   '/home/wot-param/anaconda3/lib/tcl8.6/msgs/is.msg',
   'DATA'),
  ('tcl/encoding/iso8859-13.enc',
   '/home/wot-param/anaconda3/lib/tcl8.6/encoding/iso8859-13.enc',
   'DATA'),
  ('tk/tkfbox.tcl', '/home/wot-param/anaconda3/lib/tk8.6/tkfbox.tcl', 'DATA'),
  ('tcl/msgs/sr.msg',
   '/home/wot-param/anaconda3/lib/tcl8.6/msgs/sr.msg',
   'DATA'),
  ('tcl/encoding/cp1254.enc',
   '/home/wot-param/anaconda3/lib/tcl8.6/encoding/cp1254.enc',
   'DATA'),
  ('PyQt5/Qt/translations/qtbase_he.qm',
   '/home/wot-param/anaconda3/translations/qtbase_he.qm',
   'DATA'),
  ('tcl/encoding/macJapan.enc',
   '/home/wot-param/anaconda3/lib/tcl8.6/encoding/macJapan.enc',
   'DATA'),
  ('tcl/msgs/eu.msg',
   '/home/wot-param/anaconda3/lib/tcl8.6/msgs/eu.msg',
   'DATA'),
  ('PyQt5/Qt/translations/qtbase_hu.qm',
   '/home/wot-param/anaconda3/translations/qtbase_hu.qm',
   'DATA'),
  ('tcl/msgs/es_cr.msg',
   '/home/wot-param/anaconda3/lib/tcl8.6/msgs/es_cr.msg',
   'DATA'),
  ('tk/bgerror.tcl', '/home/wot-param/anaconda3/lib/tk8.6/bgerror.tcl', 'DATA'),
  ('tcl/msgs/gl.msg',
   '/home/wot-param/anaconda3/lib/tcl8.6/msgs/gl.msg',
   'DATA'),
  ('tcl/clock.tcl', '/home/wot-param/anaconda3/lib/tcl8.6/clock.tcl', 'DATA'),
  ('tcl/msgs/ca.msg',
   '/home/wot-param/anaconda3/lib/tcl8.6/msgs/ca.msg',
   'DATA'),
  ('tcl8/8.6/tdbc/sqlite3-1.1.1.tm',
   '/home/wot-param/anaconda3/lib/tcl8.6/../tcl8/8.6/tdbc/sqlite3-1.1.1.tm',
   'DATA'),
  ('tcl/tclAppInit.c',
   '/home/wot-param/anaconda3/lib/tcl8.6/tclAppInit.c',
   'DATA'),
  ('tk/fontchooser.tcl',
   '/home/wot-param/anaconda3/lib/tk8.6/fontchooser.tcl',
   'DATA'),
  ('tcl/msgs/ru_ua.msg',
   '/home/wot-param/anaconda3/lib/tcl8.6/msgs/ru_ua.msg',
   'DATA'),
  ('tk/console.tcl', '/home/wot-param/anaconda3/lib/tk8.6/console.tcl', 'DATA'),
  ('tcl/msgs/it_ch.msg',
   '/home/wot-param/anaconda3/lib/tcl8.6/msgs/it_ch.msg',
   'DATA'),
  ('tk/scrlbar.tcl', '/home/wot-param/anaconda3/lib/tk8.6/scrlbar.tcl', 'DATA'),
  ('tk/ttk/clamTheme.tcl',
   '/home/wot-param/anaconda3/lib/tk8.6/ttk/clamTheme.tcl',
   'DATA'),
  ('tcl/msgs/fr_ch.msg',
   '/home/wot-param/anaconda3/lib/tcl8.6/msgs/fr_ch.msg',
   'DATA'),
  ('tk/images/README',
   '/home/wot-param/anaconda3/lib/tk8.6/images/README',
   'DATA'),
  ('tcl/encoding/jis0212.enc',
   '/home/wot-param/anaconda3/lib/tcl8.6/encoding/jis0212.enc',
   'DATA'),
  ('tcl/encoding/euc-cn.enc',
   '/home/wot-param/anaconda3/lib/tcl8.6/encoding/euc-cn.enc',
   'DATA'),
  ('tcl/msgs/fr.msg',
   '/home/wot-param/anaconda3/lib/tcl8.6/msgs/fr.msg',
   'DATA'),
  ('tcl/msgs/es_py.msg',
   '/home/wot-param/anaconda3/lib/tcl8.6/msgs/es_py.msg',
   'DATA'),
  ('tcl/msgs/en_gb.msg',
   '/home/wot-param/anaconda3/lib/tcl8.6/msgs/en_gb.msg',
   'DATA'),
  ('tk/dialog.tcl', '/home/wot-param/anaconda3/lib/tk8.6/dialog.tcl', 'DATA'),
  ('tcl/encoding/macRomania.enc',
   '/home/wot-param/anaconda3/lib/tcl8.6/encoding/macRomania.enc',
   'DATA'),
  ('tcl/msgs/en_zw.msg',
   '/home/wot-param/anaconda3/lib/tcl8.6/msgs/en_zw.msg',
   'DATA'),
  ('tk/pkgIndex.tcl',
   '/home/wot-param/anaconda3/lib/tk8.6/pkgIndex.tcl',
   'DATA'),
  ('tk/msgs/sv.msg', '/home/wot-param/anaconda3/lib/tk8.6/msgs/sv.msg', 'DATA'),
  ('PyQt5/Qt/translations/qtbase_lv.qm',
   '/home/wot-param/anaconda3/translations/qtbase_lv.qm',
   'DATA'),
  ('tcl/encoding/cp857.enc',
   '/home/wot-param/anaconda3/lib/tcl8.6/encoding/cp857.enc',
   'DATA'),
  ('tcl/msgs/mr.msg',
   '/home/wot-param/anaconda3/lib/tcl8.6/msgs/mr.msg',
   'DATA'),
  ('tk/msgs/pt.msg', '/home/wot-param/anaconda3/lib/tk8.6/msgs/pt.msg', 'DATA'),
  ('tk/spinbox.tcl', '/home/wot-param/anaconda3/lib/tk8.6/spinbox.tcl', 'DATA'),
  ('tcl/msgs/zh.msg',
   '/home/wot-param/anaconda3/lib/tcl8.6/msgs/zh.msg',
   'DATA'),
  ('tcl/msgs/en_hk.msg',
   '/home/wot-param/anaconda3/lib/tcl8.6/msgs/en_hk.msg',
   'DATA'),
  ('tk/ttk/scrollbar.tcl',
   '/home/wot-param/anaconda3/lib/tk8.6/ttk/scrollbar.tcl',
   'DATA'),
  ('tk/ttk/winTheme.tcl',
   '/home/wot-param/anaconda3/lib/tk8.6/ttk/winTheme.tcl',
   'DATA'),
  ('PyQt5/Qt/translations/qtbase_fi.qm',
   '/home/wot-param/anaconda3/translations/qtbase_fi.qm',
   'DATA'),
  ('tcl/msgs/hi.msg',
   '/home/wot-param/anaconda3/lib/tcl8.6/msgs/hi.msg',
   'DATA'),
  ('tcl/msgs/es_sv.msg',
   '/home/wot-param/anaconda3/lib/tcl8.6/msgs/es_sv.msg',
   'DATA'),
  ('tk/ttk/treeview.tcl',
   '/home/wot-param/anaconda3/lib/tk8.6/ttk/treeview.tcl',
   'DATA'),
  ('tk/button.tcl', '/home/wot-param/anaconda3/lib/tk8.6/button.tcl', 'DATA'),
  ('tcl/encoding/iso8859-3.enc',
   '/home/wot-param/anaconda3/lib/tcl8.6/encoding/iso8859-3.enc',
   'DATA'),
  ('tcl/msgs/fa.msg',
   '/home/wot-param/anaconda3/lib/tcl8.6/msgs/fa.msg',
   'DATA'),
  ('tcl/parray.tcl', '/home/wot-param/anaconda3/lib/tcl8.6/parray.tcl', 'DATA'),
  ('tcl/encoding/macCyrillic.enc',
   '/home/wot-param/anaconda3/lib/tcl8.6/encoding/macCyrillic.enc',
   'DATA'),
  ('importlib_metadata-2.0.0-py3.8.egg-info/LICENSE',
   '/home/wot-param/anaconda3/lib/python3.8/site-packages/importlib_metadata-2.0.0.dist-info/LICENSE',
   'DATA'),
  ('tcl/msgs/sh.msg',
   '/home/wot-param/anaconda3/lib/tcl8.6/msgs/sh.msg',
   'DATA'),
  ('PyQt5/Qt/translations/qtbase_uk.qm',
   '/home/wot-param/anaconda3/translations/qtbase_uk.qm',
   'DATA'),
  ('tk/images/pwrdLogo.eps',
   '/home/wot-param/anaconda3/lib/tk8.6/images/pwrdLogo.eps',
   'DATA'),
  ('tcl/msgs/th.msg',
   '/home/wot-param/anaconda3/lib/tcl8.6/msgs/th.msg',
   'DATA'),
  ('tcl/msgs/en_nz.msg',
   '/home/wot-param/anaconda3/lib/tcl8.6/msgs/en_nz.msg',
   'DATA'),
  ('tcl/msgs/gv.msg',
   '/home/wot-param/anaconda3/lib/tcl8.6/msgs/gv.msg',
   'DATA'),
  ('tcl/msgs/ms.msg',
   '/home/wot-param/anaconda3/lib/tcl8.6/msgs/ms.msg',
   'DATA'),
  ('PyQt5/Qt/translations/qtbase_da.qm',
   '/home/wot-param/anaconda3/translations/qtbase_da.qm',
   'DATA'),
  ('tk/ttk/vistaTheme.tcl',
   '/home/wot-param/anaconda3/lib/tk8.6/ttk/vistaTheme.tcl',
   'DATA'),
  ('tcl/msgs/sk.msg',
   '/home/wot-param/anaconda3/lib/tcl8.6/msgs/sk.msg',
   'DATA'),
  ('PyQt5/Qt/translations/qtbase_ca.qm',
   '/home/wot-param/anaconda3/translations/qtbase_ca.qm',
   'DATA'),
  ('tk/msgs/cs.msg', '/home/wot-param/anaconda3/lib/tk8.6/msgs/cs.msg', 'DATA'),
  ('tcl8/8.5/tcltest-2.5.1.tm',
   '/home/wot-param/anaconda3/lib/tcl8.6/../tcl8/8.5/tcltest-2.5.1.tm',
   'DATA'),
  ('PyQt5/Qt/translations/qtbase_ar.qm',
   '/home/wot-param/anaconda3/translations/qtbase_ar.qm',
   'DATA'),
  ('tcl/msgs/da.msg',
   '/home/wot-param/anaconda3/lib/tcl8.6/msgs/da.msg',
   'DATA'),
  ('tcl/encoding/cp437.enc',
   '/home/wot-param/anaconda3/lib/tcl8.6/encoding/cp437.enc',
   'DATA'),
  ('tcl/encoding/cp932.enc',
   '/home/wot-param/anaconda3/lib/tcl8.6/encoding/cp932.enc',
   'DATA'),
  ('tcl/encoding/iso2022-kr.enc',
   '/home/wot-param/anaconda3/lib/tcl8.6/encoding/iso2022-kr.enc',
   'DATA'),
  ('tcl/msgs/ar_in.msg',
   '/home/wot-param/anaconda3/lib/tcl8.6/msgs/ar_in.msg',
   'DATA'),
  ('tcl/package.tcl',
   '/home/wot-param/anaconda3/lib/tcl8.6/package.tcl',
   'DATA'),
  ('PyQt5/Qt/translations/qtbase_sk.qm',
   '/home/wot-param/anaconda3/translations/qtbase_sk.qm',
   'DATA'),
  ('tcl/msgs/es_cl.msg',
   '/home/wot-param/anaconda3/lib/tcl8.6/msgs/es_cl.msg',
   'DATA'),
  ('tcl/msgs/uk.msg',
   '/home/wot-param/anaconda3/lib/tcl8.6/msgs/uk.msg',
   'DATA'),
  ('tcl/msgs/kw.msg',
   '/home/wot-param/anaconda3/lib/tcl8.6/msgs/kw.msg',
   'DATA'),
  ('importlib_metadata-2.0.0-py3.8.egg-info/direct_url.json',
   '/home/wot-param/anaconda3/lib/python3.8/site-packages/importlib_metadata-2.0.0.dist-info/direct_url.json',
   'DATA'),
  ('tk/ttk/button.tcl',
   '/home/wot-param/anaconda3/lib/tk8.6/ttk/button.tcl',
   'DATA'),
  ('tcl/msgs/vi.msg',
   '/home/wot-param/anaconda3/lib/tcl8.6/msgs/vi.msg',
   'DATA'),
  ('tk/ttk/defaults.tcl',
   '/home/wot-param/anaconda3/lib/tk8.6/ttk/defaults.tcl',
   'DATA'),
  ('tcl/encoding/cp936.enc',
   '/home/wot-param/anaconda3/lib/tcl8.6/encoding/cp936.enc',
   'DATA'),
  ('tcl/encoding/cp869.enc',
   '/home/wot-param/anaconda3/lib/tcl8.6/encoding/cp869.enc',
   'DATA'),
  ('tk/ttk/notebook.tcl',
   '/home/wot-param/anaconda3/lib/tk8.6/ttk/notebook.tcl',
   'DATA'),
  ('tcl/encoding/cp950.enc',
   '/home/wot-param/anaconda3/lib/tcl8.6/encoding/cp950.enc',
   'DATA'),
  ('tk/ttk/combobox.tcl',
   '/home/wot-param/anaconda3/lib/tk8.6/ttk/combobox.tcl',
   'DATA'),
  ('PyQt5/Qt/translations/qtbase_es.qm',
   '/home/wot-param/anaconda3/translations/qtbase_es.qm',
   'DATA'),
  ('tk/ttk/ttk.tcl', '/home/wot-param/anaconda3/lib/tk8.6/ttk/ttk.tcl', 'DATA'),
  ('tcl/encoding/macDingbats.enc',
   '/home/wot-param/anaconda3/lib/tcl8.6/encoding/macDingbats.enc',
   'DATA'),
  ('tk/mkpsenc.tcl', '/home/wot-param/anaconda3/lib/tk8.6/mkpsenc.tcl', 'DATA'),
  ('tcl/msgs/hr.msg',
   '/home/wot-param/anaconda3/lib/tcl8.6/msgs/hr.msg',
   'DATA'),
  ('tcl/msgs/bn_in.msg',
   '/home/wot-param/anaconda3/lib/tcl8.6/msgs/bn_in.msg',
   'DATA'),
  ('tk/unsupported.tcl',
   '/home/wot-param/anaconda3/lib/tk8.6/unsupported.tcl',
   'DATA'),
  ('tcl/encoding/cp862.enc',
   '/home/wot-param/anaconda3/lib/tcl8.6/encoding/cp862.enc',
   'DATA'),
  ('importlib_metadata-2.0.0-py3.8.egg-info/RECORD',
   '/home/wot-param/anaconda3/lib/python3.8/site-packages/importlib_metadata-2.0.0.dist-info/RECORD',
   'DATA'),
  ('tcl/msgs/lv.msg',
   '/home/wot-param/anaconda3/lib/tcl8.6/msgs/lv.msg',
   'DATA'),
  ('PyQt5/Qt/bin/qt.conf', '/home/wot-param/anaconda3/bin/qt.conf', 'DATA'),
  ('tcl/encoding/euc-kr.enc',
   '/home/wot-param/anaconda3/lib/tcl8.6/encoding/euc-kr.enc',
   'DATA'),
  ('importlib_metadata-2.0.0-py3.8.egg-info/WHEEL',
   '/home/wot-param/anaconda3/lib/python3.8/site-packages/importlib_metadata-2.0.0.dist-info/WHEEL',
   'DATA'),
  ('tcl/msgs/el.msg',
   '/home/wot-param/anaconda3/lib/tcl8.6/msgs/el.msg',
   'DATA'),
  ('tcl/encoding/macIceland.enc',
   '/home/wot-param/anaconda3/lib/tcl8.6/encoding/macIceland.enc',
   'DATA'),
  ('tcl/encoding/cp1256.enc',
   '/home/wot-param/anaconda3/lib/tcl8.6/encoding/cp1256.enc',
   'DATA'),
  ('importlib_metadata-2.0.0-py3.8.egg-info/METADATA',
   '/home/wot-param/anaconda3/lib/python3.8/site-packages/importlib_metadata-2.0.0.dist-info/METADATA',
   'DATA'),
  ('tcl/msgs/es_do.msg',
   '/home/wot-param/anaconda3/lib/tcl8.6/msgs/es_do.msg',
   'DATA'),
  ('tk/msgs/el.msg', '/home/wot-param/anaconda3/lib/tk8.6/msgs/el.msg', 'DATA'),
  ('tcl/msgs/en_ie.msg',
   '/home/wot-param/anaconda3/lib/tcl8.6/msgs/en_ie.msg',
   'DATA'),
  ('tcl/encoding/iso2022.enc',
   '/home/wot-param/anaconda3/lib/tcl8.6/encoding/iso2022.enc',
   'DATA'),
  ('tcl/encoding/ksc5601.enc',
   '/home/wot-param/anaconda3/lib/tcl8.6/encoding/ksc5601.enc',
   'DATA'),
  ('tk/optMenu.tcl', '/home/wot-param/anaconda3/lib/tk8.6/optMenu.tcl', 'DATA'),
  ('tcl/encoding/cp1251.enc',
   '/home/wot-param/anaconda3/lib/tcl8.6/encoding/cp1251.enc',
   'DATA'),
  ('tcl/msgs/en_ph.msg',
   '/home/wot-param/anaconda3/lib/tcl8.6/msgs/en_ph.msg',
   'DATA'),
  ('tcl/encoding/iso8859-1.enc',
   '/home/wot-param/anaconda3/lib/tcl8.6/encoding/iso8859-1.enc',
   'DATA'),
  ('tcl/msgs/kok_in.msg',
   '/home/wot-param/anaconda3/lib/tcl8.6/msgs/kok_in.msg',
   'DATA'),
  ('tcl/encoding/ebcdic.enc',
   '/home/wot-param/anaconda3/lib/tcl8.6/encoding/ebcdic.enc',
   'DATA'),
  ('tcl/msgs/af_za.msg',
   '/home/wot-param/anaconda3/lib/tcl8.6/msgs/af_za.msg',
   'DATA'),
  ('PyQt5/Qt/pkgs/qt-5.9.7-h5867ecd_1/bin/qt.conf',
   '/home/wot-param/anaconda3/pkgs/qt-5.9.7-h5867ecd_1/bin/qt.conf',
   'DATA'),
  ('tcl/encoding/macUkraine.enc',
   '/home/wot-param/anaconda3/lib/tcl8.6/encoding/macUkraine.enc',
   'DATA'),
  ('tcl/encoding/iso8859-8.enc',
   '/home/wot-param/anaconda3/lib/tcl8.6/encoding/iso8859-8.enc',
   'DATA'),
  ('tcl/msgs/pt.msg',
   '/home/wot-param/anaconda3/lib/tcl8.6/msgs/pt.msg',
   'DATA'),
  ('tcl/encoding/iso8859-4.enc',
   '/home/wot-param/anaconda3/lib/tcl8.6/encoding/iso8859-4.enc',
   'DATA'),
  ('tcl/encoding/jis0201.enc',
   '/home/wot-param/anaconda3/lib/tcl8.6/encoding/jis0201.enc',
   'DATA'),
  ('tcl/msgs/en_in.msg',
   '/home/wot-param/anaconda3/lib/tcl8.6/msgs/en_in.msg',
   'DATA'),
  ('tcl/msgs/de_at.msg',
   '/home/wot-param/anaconda3/lib/tcl8.6/msgs/de_at.msg',
   'DATA'),
  ('tcl/msgs/es_mx.msg',
   '/home/wot-param/anaconda3/lib/tcl8.6/msgs/es_mx.msg',
   'DATA'),
  ('tcl/msgs/zh_sg.msg',
   '/home/wot-param/anaconda3/lib/tcl8.6/msgs/zh_sg.msg',
   'DATA'),
  ('tk/obsolete.tcl',
   '/home/wot-param/anaconda3/lib/tk8.6/obsolete.tcl',
   'DATA'),
  ('tcl/encoding/koi8-r.enc',
   '/home/wot-param/anaconda3/lib/tcl8.6/encoding/koi8-r.enc',
   'DATA'),
  ('tcl/msgs/es_pr.msg',
   '/home/wot-param/anaconda3/lib/tcl8.6/msgs/es_pr.msg',
   'DATA'),
  ('tcl/encoding/euc-jp.enc',
   '/home/wot-param/anaconda3/lib/tcl8.6/encoding/euc-jp.enc',
   'DATA'),
  ('tk/ttk/spinbox.tcl',
   '/home/wot-param/anaconda3/lib/tk8.6/ttk/spinbox.tcl',
   'DATA'),
  ('tcl/encoding/cp1252.enc',
   '/home/wot-param/anaconda3/lib/tcl8.6/encoding/cp1252.enc',
   'DATA'),
  ('PyQt5/Qt/translations/qtbase_it.qm',
   '/home/wot-param/anaconda3/translations/qtbase_it.qm',
   'DATA'),
  ('tk/ttk/fonts.tcl',
   '/home/wot-param/anaconda3/lib/tk8.6/ttk/fonts.tcl',
   'DATA'),
  ('tcl/msgs/es_hn.msg',
   '/home/wot-param/anaconda3/lib/tcl8.6/msgs/es_hn.msg',
   'DATA'),
  ('tk/focus.tcl', '/home/wot-param/anaconda3/lib/tk8.6/focus.tcl', 'DATA'),
  ('tcl/msgs/nl_be.msg',
   '/home/wot-param/anaconda3/lib/tcl8.6/msgs/nl_be.msg',
   'DATA'),
  ('tcl/msgs/ga.msg',
   '/home/wot-param/anaconda3/lib/tcl8.6/msgs/ga.msg',
   'DATA'),
  ('tk/xmfbox.tcl', '/home/wot-param/anaconda3/lib/tk8.6/xmfbox.tcl', 'DATA'),
  ('tcl/msgs/kw_gb.msg',
   '/home/wot-param/anaconda3/lib/tcl8.6/msgs/kw_gb.msg',
   'DATA'),
  ('tcl/msgs/mk.msg',
   '/home/wot-param/anaconda3/lib/tcl8.6/msgs/mk.msg',
   'DATA'),
  ('tcl/msgs/ru.msg',
   '/home/wot-param/anaconda3/lib/tcl8.6/msgs/ru.msg',
   'DATA'),
  ('tk/ttk/menubutton.tcl',
   '/home/wot-param/anaconda3/lib/tk8.6/ttk/menubutton.tcl',
   'DATA'),
  ('tcl/msgs/bg.msg',
   '/home/wot-param/anaconda3/lib/tcl8.6/msgs/bg.msg',
   'DATA'),
  ('tcl/msgs/ar_jo.msg',
   '/home/wot-param/anaconda3/lib/tcl8.6/msgs/ar_jo.msg',
   'DATA'),
  ('PyQt5/Qt/translations/qtbase_ja.qm',
   '/home/wot-param/anaconda3/translations/qtbase_ja.qm',
   'DATA'),
  ('tcl/msgs/eo.msg',
   '/home/wot-param/anaconda3/lib/tcl8.6/msgs/eo.msg',
   'DATA'),
  ('tcl/msgs/sl.msg',
   '/home/wot-param/anaconda3/lib/tcl8.6/msgs/sl.msg',
   'DATA'),
  ('tk/tkAppInit.c', '/home/wot-param/anaconda3/lib/tk8.6/tkAppInit.c', 'DATA'),
  ('PyQt5/Qt/translations/qtbase_ko.qm',
   '/home/wot-param/anaconda3/translations/qtbase_ko.qm',
   'DATA'),
  ('tcl/encoding/iso8859-6.enc',
   '/home/wot-param/anaconda3/lib/tcl8.6/encoding/iso8859-6.enc',
   'DATA'),
  ('tk/ttk/aquaTheme.tcl',
   '/home/wot-param/anaconda3/lib/tk8.6/ttk/aquaTheme.tcl',
   'DATA'),
  ('tcl/opt0.4/optparse.tcl',
   '/home/wot-param/anaconda3/lib/tcl8.6/opt0.4/optparse.tcl',
   'DATA'),
  ('tcl/encoding/iso8859-10.enc',
   '/home/wot-param/anaconda3/lib/tcl8.6/encoding/iso8859-10.enc',
   'DATA'),
  ('tcl/msgs/lt.msg',
   '/home/wot-param/anaconda3/lib/tcl8.6/msgs/lt.msg',
   'DATA'),
  ('tcl/msgs/te.msg',
   '/home/wot-param/anaconda3/lib/tcl8.6/msgs/te.msg',
   'DATA'),
  ('tcl/msgs/zh_tw.msg',
   '/home/wot-param/anaconda3/lib/tcl8.6/msgs/zh_tw.msg',
   'DATA'),
  ('tcl/encoding/gb2312-raw.enc',
   '/home/wot-param/anaconda3/lib/tcl8.6/encoding/gb2312-raw.enc',
   'DATA'),
  ('tk/images/logo.eps',
   '/home/wot-param/anaconda3/lib/tk8.6/images/logo.eps',
   'DATA'),
  ('tk/msgs/eo.msg', '/home/wot-param/anaconda3/lib/tk8.6/msgs/eo.msg', 'DATA'),
  ('tcl/encoding/symbol.enc',
   '/home/wot-param/anaconda3/lib/tcl8.6/encoding/symbol.enc',
   'DATA'),
  ('tcl/msgs/en_be.msg',
   '/home/wot-param/anaconda3/lib/tcl8.6/msgs/en_be.msg',
   'DATA'),
  ('tcl/encoding/shiftjis.enc',
   '/home/wot-param/anaconda3/lib/tcl8.6/encoding/shiftjis.enc',
   'DATA'),
  ('tk/ttk/xpTheme.tcl',
   '/home/wot-param/anaconda3/lib/tk8.6/ttk/xpTheme.tcl',
   'DATA'),
  ('tcl/msgs/de_be.msg',
   '/home/wot-param/anaconda3/lib/tcl8.6/msgs/de_be.msg',
   'DATA'),
  ('tk/scale.tcl', '/home/wot-param/anaconda3/lib/tk8.6/scale.tcl', 'DATA'),
  ('tcl/msgs/sw.msg',
   '/home/wot-param/anaconda3/lib/tcl8.6/msgs/sw.msg',
   'DATA'),
  ('tk/msgs/es.msg', '/home/wot-param/anaconda3/lib/tk8.6/msgs/es.msg', 'DATA'),
  ('tcl/encoding/cp1257.enc',
   '/home/wot-param/anaconda3/lib/tcl8.6/encoding/cp1257.enc',
   'DATA'),
  ('tcl8/8.4/platform-1.0.14.tm',
   '/home/wot-param/anaconda3/lib/tcl8.6/../tcl8/8.4/platform-1.0.14.tm',
   'DATA'),
  ('tcl/msgs/en_bw.msg',
   '/home/wot-param/anaconda3/lib/tcl8.6/msgs/en_bw.msg',
   'DATA'),
  ('tcl/history.tcl',
   '/home/wot-param/anaconda3/lib/tcl8.6/history.tcl',
   'DATA'),
  ('tcl/msgs/fo_fo.msg',
   '/home/wot-param/anaconda3/lib/tcl8.6/msgs/fo_fo.msg',
   'DATA'),
  ('tcl/msgs/en_au.msg',
   '/home/wot-param/anaconda3/lib/tcl8.6/msgs/en_au.msg',
   'DATA'),
  ('tcl/msgs/et.msg',
   '/home/wot-param/anaconda3/lib/tcl8.6/msgs/et.msg',
   'DATA'),
  ('tk/ttk/altTheme.tcl',
   '/home/wot-param/anaconda3/lib/tk8.6/ttk/altTheme.tcl',
   'DATA'),
  ('tcl/msgs/kok.msg',
   '/home/wot-param/anaconda3/lib/tcl8.6/msgs/kok.msg',
   'DATA'),
  ('tcl/msgs/ga_ie.msg',
   '/home/wot-param/anaconda3/lib/tcl8.6/msgs/ga_ie.msg',
   'DATA'),
  ('tcl/msgs/id.msg',
   '/home/wot-param/anaconda3/lib/tcl8.6/msgs/id.msg',
   'DATA'),
  ('tcl/msgs/ro.msg',
   '/home/wot-param/anaconda3/lib/tcl8.6/msgs/ro.msg',
   'DATA'),
  ('tk/images/pwrdLogo175.gif',
   '/home/wot-param/anaconda3/lib/tk8.6/images/pwrdLogo175.gif',
   'DATA'),
  ('tcl/encoding/iso2022-jp.enc',
   '/home/wot-param/anaconda3/lib/tcl8.6/encoding/iso2022-jp.enc',
   'DATA'),
  ('tcl/msgs/sv.msg',
   '/home/wot-param/anaconda3/lib/tcl8.6/msgs/sv.msg',
   'DATA'),
  ('PyQt5/Qt/translations/qtbase_bg.qm',
   '/home/wot-param/anaconda3/translations/qtbase_bg.qm',
   'DATA'),
  ('tcl/msgs/es_gt.msg',
   '/home/wot-param/anaconda3/lib/tcl8.6/msgs/es_gt.msg',
   'DATA'),
  ('tcl/msgs/fa_in.msg',
   '/home/wot-param/anaconda3/lib/tcl8.6/msgs/fa_in.msg',
   'DATA'),
  ('tcl/msgs/es_bo.msg',
   '/home/wot-param/anaconda3/lib/tcl8.6/msgs/es_bo.msg',
   'DATA'),
  ('tcl/encoding/tis-620.enc',
   '/home/wot-param/anaconda3/lib/tcl8.6/encoding/tis-620.enc',
   'DATA'),
  ('tcl/msgs/es.msg',
   '/home/wot-param/anaconda3/lib/tcl8.6/msgs/es.msg',
   'DATA'),
  ('tcl/msgs/ar_sy.msg',
   '/home/wot-param/anaconda3/lib/tcl8.6/msgs/ar_sy.msg',
   'DATA'),
  ('tk/icons.tcl', '/home/wot-param/anaconda3/lib/tk8.6/icons.tcl', 'DATA'),
  ('tcl/msgs/hi_in.msg',
   '/home/wot-param/anaconda3/lib/tcl8.6/msgs/hi_in.msg',
   'DATA'),
  ('tcl/msgs/pl.msg',
   '/home/wot-param/anaconda3/lib/tcl8.6/msgs/pl.msg',
   'DATA'),
  ('tk/tearoff.tcl', '/home/wot-param/anaconda3/lib/tk8.6/tearoff.tcl', 'DATA'),
  ('tcl/encoding/cp855.enc',
   '/home/wot-param/anaconda3/lib/tcl8.6/encoding/cp855.enc',
   'DATA'),
  ('tcl8/8.5/msgcat-1.6.1.tm',
   '/home/wot-param/anaconda3/lib/tcl8.6/../tcl8/8.5/msgcat-1.6.1.tm',
   'DATA'),
  ('tk/msgs/it.msg', '/home/wot-param/anaconda3/lib/tk8.6/msgs/it.msg', 'DATA'),
  ('tcl/msgs/de.msg',
   '/home/wot-param/anaconda3/lib/tcl8.6/msgs/de.msg',
   'DATA'),
  ('tcl/encoding/macGreek.enc',
   '/home/wot-param/anaconda3/lib/tcl8.6/encoding/macGreek.enc',
   'DATA'),
  ('tk/panedwindow.tcl',
   '/home/wot-param/anaconda3/lib/tk8.6/panedwindow.tcl',
   'DATA'),
  ('tcl/encoding/cp1250.enc',
   '/home/wot-param/anaconda3/lib/tcl8.6/encoding/cp1250.enc',
   'DATA'),
  ('tk/msgbox.tcl', '/home/wot-param/anaconda3/lib/tk8.6/msgbox.tcl', 'DATA'),
  ('PyQt5/Qt/translations/qtbase_de.qm',
   '/home/wot-param/anaconda3/translations/qtbase_de.qm',
   'DATA'),
  ('PyQt5/Qt/pkgs/qt-5.9.7-h5867ecd_1/info/recipe/qt.conf',
   '/home/wot-param/anaconda3/pkgs/qt-5.9.7-h5867ecd_1/info/recipe/qt.conf',
   'DATA'),
  ('tcl/msgs/es_uy.msg',
   '/home/wot-param/anaconda3/lib/tcl8.6/msgs/es_uy.msg',
   'DATA'),
  ('tcl/init.tcl', '/home/wot-param/anaconda3/lib/tcl8.6/init.tcl', 'DATA'),
  ('tcl/msgs/fr_be.msg',
   '/home/wot-param/anaconda3/lib/tcl8.6/msgs/fr_be.msg',
   'DATA'),
  ('tcl/msgs/he.msg',
   '/home/wot-param/anaconda3/lib/tcl8.6/msgs/he.msg',
   'DATA'),
  ('tcl/encoding/iso8859-14.enc',
   '/home/wot-param/anaconda3/lib/tcl8.6/encoding/iso8859-14.enc',
   'DATA'),
  ('tcl/encoding/gb1988.enc',
   '/home/wot-param/anaconda3/lib/tcl8.6/encoding/gb1988.enc',
   'DATA'),
  ('tcl/msgs/gl_es.msg',
   '/home/wot-param/anaconda3/lib/tcl8.6/msgs/gl_es.msg',
   'DATA'),
  ('tcl/encoding/cp1258.enc',
   '/home/wot-param/anaconda3/lib/tcl8.6/encoding/cp1258.enc',
   'DATA'),
  ('tk/palette.tcl', '/home/wot-param/anaconda3/lib/tk8.6/palette.tcl', 'DATA'),
  ('tk/images/logoMed.gif',
   '/home/wot-param/anaconda3/lib/tk8.6/images/logoMed.gif',
   'DATA'),
  ('tcl/encoding/macTurkish.enc',
   '/home/wot-param/anaconda3/lib/tcl8.6/encoding/macTurkish.enc',
   'DATA'),
  ('tk/msgs/pl.msg', '/home/wot-param/anaconda3/lib/tk8.6/msgs/pl.msg', 'DATA'),
  ('tk/msgs/nl.msg', '/home/wot-param/anaconda3/lib/tk8.6/msgs/nl.msg', 'DATA'),
  ('tk/ttk/panedwindow.tcl',
   '/home/wot-param/anaconda3/lib/tk8.6/ttk/panedwindow.tcl',
   'DATA'),
  ('tcl/msgs/pt_br.msg',
   '/home/wot-param/anaconda3/lib/tcl8.6/msgs/pt_br.msg',
   'DATA'),
  ('tcl/encoding/iso8859-2.enc',
   '/home/wot-param/anaconda3/lib/tcl8.6/encoding/iso8859-2.enc',
   'DATA'),
  ('tcl/encoding/cp775.enc',
   '/home/wot-param/anaconda3/lib/tcl8.6/encoding/cp775.enc',
   'DATA'),
  ('tcl/msgs/fr_ca.msg',
   '/home/wot-param/anaconda3/lib/tcl8.6/msgs/fr_ca.msg',
   'DATA'),
  ('tcl/msgs/ko_kr.msg',
   '/home/wot-param/anaconda3/lib/tcl8.6/msgs/ko_kr.msg',
   'DATA'),
  ('tcl/encoding/cp865.enc',
   '/home/wot-param/anaconda3/lib/tcl8.6/encoding/cp865.enc',
   'DATA'),
  ('tk/images/pwrdLogo200.gif',
   '/home/wot-param/anaconda3/lib/tk8.6/images/pwrdLogo200.gif',
   'DATA'),
  ('tcl/msgs/kl.msg',
   '/home/wot-param/anaconda3/lib/tcl8.6/msgs/kl.msg',
   'DATA'),
  ('tcl/msgs/zh_hk.msg',
   '/home/wot-param/anaconda3/lib/tcl8.6/msgs/zh_hk.msg',
   'DATA'),
  ('tk/ttk/progress.tcl',
   '/home/wot-param/anaconda3/lib/tk8.6/ttk/progress.tcl',
   'DATA'),
  ('tk/ttk/entry.tcl',
   '/home/wot-param/anaconda3/lib/tk8.6/ttk/entry.tcl',
   'DATA'),
  ('tcl/encoding/macThai.enc',
   '/home/wot-param/anaconda3/lib/tcl8.6/encoding/macThai.enc',
   'DATA'),
  ('tcl/encoding/jis0208.enc',
   '/home/wot-param/anaconda3/lib/tcl8.6/encoding/jis0208.enc',
   'DATA'),
  ('tcl/http1.0/pkgIndex.tcl',
   '/home/wot-param/anaconda3/lib/tcl8.6/http1.0/pkgIndex.tcl',
   'DATA'),
  ('tcl/encoding/iso8859-15.enc',
   '/home/wot-param/anaconda3/lib/tcl8.6/encoding/iso8859-15.enc',
   'DATA'),
  ('tcl/msgs/es_ve.msg',
   '/home/wot-param/anaconda3/lib/tcl8.6/msgs/es_ve.msg',
   'DATA'),
  ('tk/msgs/de.msg', '/home/wot-param/anaconda3/lib/tk8.6/msgs/de.msg', 'DATA'),
  ('tk/menu.tcl', '/home/wot-param/anaconda3/lib/tk8.6/menu.tcl', 'DATA'),
  ('tcl/safe.tcl', '/home/wot-param/anaconda3/lib/tcl8.6/safe.tcl', 'DATA'),
  ('tk/listbox.tcl', '/home/wot-param/anaconda3/lib/tk8.6/listbox.tcl', 'DATA'),
  ('tk/msgs/da.msg', '/home/wot-param/anaconda3/lib/tk8.6/msgs/da.msg', 'DATA'),
  ('tcl/msgs/af.msg',
   '/home/wot-param/anaconda3/lib/tcl8.6/msgs/af.msg',
   'DATA'),
  ('tcl/encoding/cp861.enc',
   '/home/wot-param/anaconda3/lib/tcl8.6/encoding/cp861.enc',
   'DATA'),
  ('tk/images/tai-ku.gif',
   '/home/wot-param/anaconda3/lib/tk8.6/images/tai-ku.gif',
   'DATA'),
  ('tcl/msgs/es_co.msg',
   '/home/wot-param/anaconda3/lib/tcl8.6/msgs/es_co.msg',
   'DATA'),
  ('tcl/encoding/cp1255.enc',
   '/home/wot-param/anaconda3/lib/tcl8.6/encoding/cp1255.enc',
   'DATA'),
  ('tcl/encoding/cp864.enc',
   '/home/wot-param/anaconda3/lib/tcl8.6/encoding/cp864.enc',
   'DATA'),
  ('tk/choosedir.tcl',
   '/home/wot-param/anaconda3/lib/tk8.6/choosedir.tcl',
   'DATA'),
  ('tk/msgs/en_gb.msg',
   '/home/wot-param/anaconda3/lib/tk8.6/msgs/en_gb.msg',
   'DATA'),
  ('tcl/msgs/nn.msg',
   '/home/wot-param/anaconda3/lib/tcl8.6/msgs/nn.msg',
   'DATA'),
  ('tk/ttk/classicTheme.tcl',
   '/home/wot-param/anaconda3/lib/tk8.6/ttk/classicTheme.tcl',
   'DATA'),
  ('tcl/msgs/mr_in.msg',
   '/home/wot-param/anaconda3/lib/tcl8.6/msgs/mr_in.msg',
   'DATA'),
  ('tcl/encoding/iso8859-5.enc',
   '/home/wot-param/anaconda3/lib/tcl8.6/encoding/iso8859-5.enc',
   'DATA'),
  ('tk/ttk/cursors.tcl',
   '/home/wot-param/anaconda3/lib/tk8.6/ttk/cursors.tcl',
   'DATA'),
  ('tk/ttk/utils.tcl',
   '/home/wot-param/anaconda3/lib/tk8.6/ttk/utils.tcl',
   'DATA'),
  ('tcl/msgs/fi.msg',
   '/home/wot-param/anaconda3/lib/tcl8.6/msgs/fi.msg',
   'DATA'),
  ('tcl/msgs/zh_cn.msg',
   '/home/wot-param/anaconda3/lib/tcl8.6/msgs/zh_cn.msg',
   'DATA'),
  ('importlib_metadata-2.0.0-py3.8.egg-info/INSTALLER',
   '/home/wot-param/anaconda3/lib/python3.8/site-packages/importlib_metadata-2.0.0.dist-info/INSTALLER',
   'DATA'),
  ('tcl/encoding/ascii.enc',
   '/home/wot-param/anaconda3/lib/tcl8.6/encoding/ascii.enc',
   'DATA'),
  ('tcl/msgs/nl.msg',
   '/home/wot-param/anaconda3/lib/tcl8.6/msgs/nl.msg',
   'DATA'),
  ('tcl/msgs/en_za.msg',
   '/home/wot-param/anaconda3/lib/tcl8.6/msgs/en_za.msg',
   'DATA'),
  ('tcl/msgs/ja.msg',
   '/home/wot-param/anaconda3/lib/tcl8.6/msgs/ja.msg',
   'DATA'),
  ('tcl/msgs/es_ec.msg',
   '/home/wot-param/anaconda3/lib/tcl8.6/msgs/es_ec.msg',
   'DATA'),
  ('tk/msgs/en.msg', '/home/wot-param/anaconda3/lib/tk8.6/msgs/en.msg', 'DATA'),
  ('tcl/msgs/en_ca.msg',
   '/home/wot-param/anaconda3/lib/tcl8.6/msgs/en_ca.msg',
   'DATA'),
  ('tk/entry.tcl', '/home/wot-param/anaconda3/lib/tk8.6/entry.tcl', 'DATA'),
  ('tcl/encoding/cp949.enc',
   '/home/wot-param/anaconda3/lib/tcl8.6/encoding/cp949.enc',
   'DATA'),
  ('tk/megawidget.tcl',
   '/home/wot-param/anaconda3/lib/tk8.6/megawidget.tcl',
   'DATA'),
  ('tcl/msgs/eu_es.msg',
   '/home/wot-param/anaconda3/lib/tcl8.6/msgs/eu_es.msg',
   'DATA'),
  ('tcl/msgs/gv_gb.msg',
   '/home/wot-param/anaconda3/lib/tcl8.6/msgs/gv_gb.msg',
   'DATA'),
  ('tk/images/pwrdLogo75.gif',
   '/home/wot-param/anaconda3/lib/tk8.6/images/pwrdLogo75.gif',
   'DATA'),
  ('tk/images/pwrdLogo150.gif',
   '/home/wot-param/anaconda3/lib/tk8.6/images/pwrdLogo150.gif',
   'DATA'),
  ('tcl/encoding/cp850.enc',
   '/home/wot-param/anaconda3/lib/tcl8.6/encoding/cp850.enc',
   'DATA'),
  ('tcl/msgs/id_id.msg',
   '/home/wot-param/anaconda3/lib/tcl8.6/msgs/id_id.msg',
   'DATA'),
  ('importlib_metadata-2.0.0-py3.8.egg-info/top_level.txt',
   '/home/wot-param/anaconda3/lib/python3.8/site-packages/importlib_metadata-2.0.0.dist-info/top_level.txt',
   'DATA'),
  ('tcl/msgs/ta.msg',
   '/home/wot-param/anaconda3/lib/tcl8.6/msgs/ta.msg',
   'DATA'),
  ('tk/comdlg.tcl', '/home/wot-param/anaconda3/lib/tk8.6/comdlg.tcl', 'DATA'),
  ('tcl/msgs/te_in.msg',
   '/home/wot-param/anaconda3/lib/tcl8.6/msgs/te_in.msg',
   'DATA'),
  ('tcl/encoding/iso8859-7.enc',
   '/home/wot-param/anaconda3/lib/tcl8.6/encoding/iso8859-7.enc',
   'DATA'),
  ('tcl/msgs/mt.msg',
   '/home/wot-param/anaconda3/lib/tcl8.6/msgs/mt.msg',
   'DATA'),
  ('tk/tk.tcl', '/home/wot-param/anaconda3/lib/tk8.6/tk.tcl', 'DATA'),
  ('tcl/msgs/es_pe.msg',
   '/home/wot-param/anaconda3/lib/tcl8.6/msgs/es_pe.msg',
   'DATA'),
  ('PyQt5/Qt/translations/qtbase_cs.qm',
   '/home/wot-param/anaconda3/translations/qtbase_cs.qm',
   'DATA'),
  ('include/python3.8/pyconfig.h',
   '/home/wot-param/anaconda3/include/python3.8/pyconfig.h',
   'DATA'),
  ('tcl/tclIndex', '/home/wot-param/anaconda3/lib/tcl8.6/tclIndex', 'DATA'),
  ('tk/ttk/sizegrip.tcl',
   '/home/wot-param/anaconda3/lib/tk8.6/ttk/sizegrip.tcl',
   'DATA'),
  ('PyQt5/Qt/envs/desktopApp/bin/qt.conf',
   '/home/wot-param/anaconda3/envs/desktopApp/bin/qt.conf',
   'DATA'),
  ('tk/msgs/fr.msg', '/home/wot-param/anaconda3/lib/tk8.6/msgs/fr.msg', 'DATA'),
  ('tcl/http1.0/http.tcl',
   '/home/wot-param/anaconda3/lib/tcl8.6/http1.0/http.tcl',
   'DATA'),
  ('tcl/encoding/iso8859-16.enc',
   '/home/wot-param/anaconda3/lib/tcl8.6/encoding/iso8859-16.enc',
   'DATA'),
  ('tcl/opt0.4/pkgIndex.tcl',
   '/home/wot-param/anaconda3/lib/tcl8.6/opt0.4/pkgIndex.tcl',
   'DATA'),
  ('PyQt5/Qt/translations/qtbase_pl.qm',
   '/home/wot-param/anaconda3/translations/qtbase_pl.qm',
   'DATA'),
  ('PyQt5/Qt/translations/qtbase_en.qm',
   '/home/wot-param/anaconda3/translations/qtbase_en.qm',
   'DATA'),
  ('tcl/tm.tcl', '/home/wot-param/anaconda3/lib/tcl8.6/tm.tcl', 'DATA'),
  ('tcl/encoding/macCroatian.enc',
   '/home/wot-param/anaconda3/lib/tcl8.6/encoding/macCroatian.enc',
   'DATA'),
  ('tcl/encoding/macRoman.enc',
   '/home/wot-param/anaconda3/lib/tcl8.6/encoding/macRoman.enc',
   'DATA'),
  ('tcl/msgs/ms_my.msg',
   '/home/wot-param/anaconda3/lib/tcl8.6/msgs/ms_my.msg',
   'DATA'),
  ('tk/images/logoLarge.gif',
   '/home/wot-param/anaconda3/lib/tk8.6/images/logoLarge.gif',
   'DATA'),
  ('tcl/auto.tcl', '/home/wot-param/anaconda3/lib/tcl8.6/auto.tcl', 'DATA'),
  ('tcl/encoding/macCentEuro.enc',
   '/home/wot-param/anaconda3/lib/tcl8.6/encoding/macCentEuro.enc',
   'DATA'),
  ('importlib_metadata-2.0.0-py3.8.egg-info/REQUESTED',
   '/home/wot-param/anaconda3/lib/python3.8/site-packages/importlib_metadata-2.0.0.dist-info/REQUESTED',
   'DATA'),
  ('PyQt5/Qt/translations/qtbase_fr.qm',
   '/home/wot-param/anaconda3/translations/qtbase_fr.qm',
   'DATA'),
  ('tcl/encoding/cp866.enc',
   '/home/wot-param/anaconda3/lib/tcl8.6/encoding/cp866.enc',
   'DATA'),
  ('PyQt5/Qt/translations/qtbase_ru.qm',
   '/home/wot-param/anaconda3/translations/qtbase_ru.qm',
   'DATA'),
  ('tcl/msgs/cs.msg',
   '/home/wot-param/anaconda3/lib/tcl8.6/msgs/cs.msg',
   'DATA'),
  ('tcl/encoding/cp860.enc',
   '/home/wot-param/anaconda3/lib/tcl8.6/encoding/cp860.enc',
   'DATA'),
  ('tcl/msgs/kl_gl.msg',
   '/home/wot-param/anaconda3/lib/tcl8.6/msgs/kl_gl.msg',
   'DATA'),
  ('tcl/encoding/gb12345.enc',
   '/home/wot-param/anaconda3/lib/tcl8.6/encoding/gb12345.enc',
   'DATA'),
  ('tcl/msgs/hu.msg',
   '/home/wot-param/anaconda3/lib/tcl8.6/msgs/hu.msg',
   'DATA'),
  ('tk/iconlist.tcl',
   '/home/wot-param/anaconda3/lib/tk8.6/iconlist.tcl',
   'DATA'),
  ('lib/python3.8/config-3.8-x86_64-linux-gnu/Makefile',
   '/home/wot-param/anaconda3/lib/python3.8/config-3.8-x86_64-linux-gnu/Makefile',
   'DATA'),
  ('tcl/msgs/ko.msg',
   '/home/wot-param/anaconda3/lib/tcl8.6/msgs/ko.msg',
   'DATA'),
  ('tcl/msgs/nb.msg',
   '/home/wot-param/anaconda3/lib/tcl8.6/msgs/nb.msg',
   'DATA'),
  ('tcl/msgs/fo.msg',
   '/home/wot-param/anaconda3/lib/tcl8.6/msgs/fo.msg',
   'DATA'),
  ('tcl/msgs/it.msg',
   '/home/wot-param/anaconda3/lib/tcl8.6/msgs/it.msg',
   'DATA'),
  ('tk/msgs/ru.msg', '/home/wot-param/anaconda3/lib/tk8.6/msgs/ru.msg', 'DATA'),
  ('tcl/encoding/cp863.enc',
   '/home/wot-param/anaconda3/lib/tcl8.6/encoding/cp863.enc',
   'DATA'),
  ('tcl/encoding/gb2312.enc',
   '/home/wot-param/anaconda3/lib/tcl8.6/encoding/gb2312.enc',
   'DATA'),
  ('tk/text.tcl', '/home/wot-param/anaconda3/lib/tk8.6/text.tcl', 'DATA'),
  ('tcl/msgs/es_ni.msg',
   '/home/wot-param/anaconda3/lib/tcl8.6/msgs/es_ni.msg',
   'DATA'),
  ('tcl/encoding/dingbats.enc',
   '/home/wot-param/anaconda3/lib/tcl8.6/encoding/dingbats.enc',
   'DATA'),
  ('PyQt5/Qt/translations/qtbase_gd.qm',
   '/home/wot-param/anaconda3/translations/qtbase_gd.qm',
   'DATA'),
  ('tcl/msgs/ar_lb.msg',
   '/home/wot-param/anaconda3/lib/tcl8.6/msgs/ar_lb.msg',
   'DATA'),
  ('tcl/encoding/cp1253.enc',
   '/home/wot-param/anaconda3/lib/tcl8.6/encoding/cp1253.enc',
   'DATA'),
  ('tcl/encoding/cp874.enc',
   '/home/wot-param/anaconda3/lib/tcl8.6/encoding/cp874.enc',
   'DATA'),
  ('tk/tclIndex', '/home/wot-param/anaconda3/lib/tk8.6/tclIndex', 'DATA'),
  ('tk/msgs/hu.msg', '/home/wot-param/anaconda3/lib/tk8.6/msgs/hu.msg', 'DATA'),
  ('tcl/encoding/cp852.enc',
   '/home/wot-param/anaconda3/lib/tcl8.6/encoding/cp852.enc',
   'DATA'),
  ('tcl8/8.6/http-2.9.1.tm',
   '/home/wot-param/anaconda3/lib/tcl8.6/../tcl8/8.6/http-2.9.1.tm',
   'DATA'),
  ('tcl/encoding/koi8-u.enc',
   '/home/wot-param/anaconda3/lib/tcl8.6/encoding/koi8-u.enc',
   'DATA'),
  ('tcl8/8.4/platform/shell-1.1.4.tm',
   '/home/wot-param/anaconda3/lib/tcl8.6/../tcl8/8.4/platform/shell-1.1.4.tm',
   'DATA'),
  ('tcl/msgs/tr.msg',
   '/home/wot-param/anaconda3/lib/tcl8.6/msgs/tr.msg',
   'DATA'),
  ('tcl/msgs/ar.msg',
   '/home/wot-param/anaconda3/lib/tcl8.6/msgs/ar.msg',
   'DATA')],
 False,
 False,
 False,
 [])
